riscv_processor_sv.vcd
$version Generated by VerilatedVcd $end
$timescale 1ps $end
 $scope module rtl $end
  $scope module top $end
   $var wire 1 , clk $end
   $var wire 1 - reset $end
   $var wire 32 # proc_addr [31:0] $end
   $var wire 32 $ proc_data_out [31:0] $end
   $var wire 1 . proc_mem_en $end
   $var wire 32 / proc_data_in [31:0] $end
   $var wire 32 0 cycle_count [31:0] $end
   $var wire 1 1 test_pass $end
   $scope module clk_rst_gen $end
    $var wire 1 , clk $end
    $var wire 1 - reset $end
    $var wire 1 , clk_reg $end
    $var wire 1 - rst_reg $end
   $upscope $end
   $scope module memory $end
    $var wire 1 , clk $end
    $var wire 1 - reset $end
    $var wire 1 . mem_en $end
    $var wire 32 # mem_addr [31:0] $end
    $var wire 32 $ mem_data_in [31:0] $end
    $var wire 32 / mem_data_out [31:0] $end
    $scope module unnamedblk1 $end
     $var wire 32 2 i [31:0] $end
    $upscope $end
    $scope module unnamedblk2 $end
     $var wire 32 3 i [31:0] $end
    $upscope $end
   $upscope $end
   $scope module uut $end
    $var wire 1 , clk $end
    $var wire 1 - reset $end
    $var wire 32 / ext_data_in [31:0] $end
    $var wire 32 # ext_addr [31:0] $end
    $var wire 32 $ ext_data_out [31:0] $end
    $var wire 1 . ext_mem_en $end
    $var wire 32 % if_id_instr [31:0] $end
    $var wire 32 & id_ex_rs1 [31:0] $end
    $var wire 32 ' id_ex_rs2 [31:0] $end
    $var wire 32 ( id_ex_imm [31:0] $end
    $var wire 32 ) ex_mem_alu [31:0] $end
    $var wire 32 $ ex_mem_store_data [31:0] $end
    $var wire 32 * wb_data [31:0] $end
    $scope module DEC $end
     $var wire 1 , clk $end
     $var wire 1 - reset $end
     $var wire 32 % if_id_instr [31:0] $end
     $var wire 32 * wb_data [31:0] $end
     $var wire 32 & id_ex_rs1 [31:0] $end
     $var wire 32 ' id_ex_rs2 [31:0] $end
     $var wire 32 ( id_ex_imm [31:0] $end
    $upscope $end
    $scope module EXU $end
     $var wire 1 , clk $end
     $var wire 1 - reset $end
     $var wire 32 & id_ex_rs1 [31:0] $end
     $var wire 32 ' id_ex_rs2 [31:0] $end
     $var wire 32 ( id_ex_imm [31:0] $end
     $var wire 32 ) ex_mem_alu [31:0] $end
     $var wire 32 $ ex_mem_store_data [31:0] $end
    $upscope $end
    $scope module IFU $end
     $var wire 1 , clk $end
     $var wire 1 - reset $end
     $var wire 32 / ext_data_in [31:0] $end
     $var wire 32 # ext_addr [31:0] $end
     $var wire 32 % if_id_instr [31:0] $end
     $var wire 32 + pc [31:0] $end
    $upscope $end
    $scope module WB $end
     $var wire 1 , clk $end
     $var wire 1 - reset $end
     $var wire 32 ) mem_wb_result [31:0] $end
     $var wire 32 * wb_data [31:0] $end
    $upscope $end
   $upscope $end
  $upscope $end
 $upscope $end
$enddefinitions $end


#0
b00000000000000000000000000000000 #
b00000000000000000000000000000000 $
b00000000000000000000000000000000 %
b00000000000000000000000000000000 &
b00000000000000000000000000000000 '
b00000000000000000000000000000000 (
b00000000000000000000000000000000 )
b00000000000000000000000000000000 *
b00000000000000000000000000000000 +
0,
1-
0.
b00000000000000000000000000010011 /
b00000000000000000000000000000000 0
11
b00000000000000000000000100000000 2
b00000000000000000000000100000000 3
#10
b00000000000000000000000000010011 %
1,
#20
0,
#30
1,
#40
0,
#50
1,
#60
0,
#70
1,
#80
0,
#90
1,
#100
0,
0-
1.
b00000000000100000000000010010011 /
#110
b00000000000100000000000010010011 %
b00000000000000000000000000000001 &
b00000000000000000000000000000010 '
b00000000000000000000000000000100 +
1,
b00000000000000000000000000000001 0
#120
0,
#130
b00000000000000000000000000000100 #
b00000000000000000000000000000010 $
b00000000000000000000000000000001 (
b00000000000000000000000000000001 )
b00000000000000000000000000001000 +
1,
b00000000001000000000000100010011 /
b00000000000000000000000000000010 0
#140
0,
#150
b00000000000000000000000000001000 #
b00000000001000000000000100010011 %
b00000000000000000000000000000010 )
b00000000000000000000000000000001 *
b00000000000000000000000000001100 +
1,
b00000000001100000000000110010011 /
b00000000000000000000000000000011 0
#160
0,
#170
b00000000000000000000000000001100 #
b00000000001100000000000110010011 %
b00000000000000000000000000000010 &
b00000000000000000000000000000011 '
b00000000000000000000000000000010 (
b00000000000000000000000000000010 *
b00000000000000000000000000010000 +
1,
b00000000010000000000001000010011 /
b00000000000000000000000000000100 0
#180
0,
#190
b00000000000000000000000000010000 #
b00000000000000000000000000000011 $
b00000000010000000000001000010011 %
b00000000000000000000000000000011 &
b00000000000000000000000000000100 '
b00000000000000000000000000000011 (
b00000000000000000000000000000100 )
b00000000000000000000000000010100 +
1,
b00000000010100000000001010010011 /
b00000000000000000000000000000101 0
#200
0,
#210
b00000000000000000000000000010100 #
b00000000000000000000000000000100 $
b00000000010100000000001010010011 %
b00000000000000000000000000000100 (
b00000000000000000000000000000110 )
b00000000000000000000000000000100 *
b00000000000000000000000000011000 +
1,
b00000000000000000000000000010011 /
b00000000000000000000000000000110 0
#220
0,
#230
b00000000000000000000000000011000 #
b00000000000000000000000000010011 %
b00000000000000000000000000000101 &
b00000000000000000000000000000110 '
b00000000000000000000000000000101 (
b00000000000000000000000000000111 )
b00000000000000000000000000000110 *
b00000000000000000000000000011100 +
1,
b00000000000000000000000000000111 0
#240
0,
#250
b00000000000000000000000000011100 #
b00000000000000000000000000000110 $
b00000000000000000000000000000111 &
b00000000000000000000000000001000 '
b00000000000000000000000000000000 (
b00000000000000000000000000001010 )
b00000000000000000000000000000111 *
b00000000000000000000000000100000 +
1,
b00000000000000000000000000001000 0
#260
0,
#270
b00000000000000000000000000100000 #
b00000000000000000000000000001000 $
b00000000000000000000000000001000 &
b00000000000000000000000000001001 '
b00000000000000000000000000000111 )
b00000000000000000000000000001010 *
b00000000000000000000000000100100 +
1,
b00000000000000000000000000001001 0
#280
0,
#290
b00000000000000000000000000100100 #
b00000000000000000000000000001001 $
b00000000000000000000000000001011 &
b00000000000000000000000000001100 '
b00000000000000000000000000001000 )
b00000000000000000000000000000111 *
b00000000000000000000000000101000 +
1,
b00000000000000000000000000001010 0
#300
0,
#310
b00000000000000000000000000101000 #
b00000000000000000000000000001100 $
b00000000000000000000000000001000 &
b00000000000000000000000000001001 '
b00000000000000000000000000001011 )
b00000000000000000000000000001000 *
b00000000000000000000000000101100 +
1,
b00000000000000000000000000001011 0
#320
0,
#330
b00000000000000000000000000101100 #
b00000000000000000000000000001001 $
b00000000000000000000000000001001 &
b00000000000000000000000000001010 '
b00000000000000000000000000001000 )
b00000000000000000000000000001011 *
b00000000000000000000000000110000 +
1,
b00000000000000000000000000001100 0
#340
0,
#350
b00000000000000000000000000110000 #
b00000000000000000000000000001010 $
b00000000000000000000000000001100 &
b00000000000000000000000000001101 '
b00000000000000000000000000001001 )
b00000000000000000000000000001000 *
b00000000000000000000000000110100 +
1,
b00000000000000000000000000001101 0
#360
0,
#370
b00000000000000000000000000110100 #
b00000000000000000000000000001101 $
b00000000000000000000000000001001 &
b00000000000000000000000000001010 '
b00000000000000000000000000001100 )
b00000000000000000000000000001001 *
b00000000000000000000000000111000 +
1,
b00000000000000000000000000001110 0
#380
0,
#390
b00000000000000000000000000111000 #
b00000000000000000000000000001010 $
b00000000000000000000000000001010 &
b00000000000000000000000000001011 '
b00000000000000000000000000001001 )
b00000000000000000000000000001100 *
b00000000000000000000000000111100 +
1,
b00000000000000000000000000001111 0
#400
0,
#410
b00000000000000000000000000111100 #
b00000000000000000000000000001011 $
b00000000000000000000000000001101 &
b00000000000000000000000000001110 '
b00000000000000000000000000001010 )
b00000000000000000000000000001001 *
b00000000000000000000000001000000 +
1,
b00000000000000000000000000010000 0
#420
0,
#430
b00000000000000000000000001000000 #
b00000000000000000000000000001110 $
b00000000000000000000000000001010 &
b00000000000000000000000000001011 '
b00000000000000000000000000001101 )
b00000000000000000000000000001010 *
b00000000000000000000000001000100 +
1,
b00000000000000000000000000010001 0
#440
0,
#450
b00000000000000000000000001000100 #
b00000000000000000000000000001011 $
b00000000000000000000000000001011 &
b00000000000000000000000000001100 '
b00000000000000000000000000001010 )
b00000000000000000000000000001101 *
b00000000000000000000000001001000 +
1,
b00000000000000000000000000010010 0
#460
0,
#470
b00000000000000000000000001001000 #
b00000000000000000000000000001100 $
b00000000000000000000000000001110 &
b00000000000000000000000000001111 '
b00000000000000000000000000001011 )
b00000000000000000000000000001010 *
b00000000000000000000000001001100 +
1,
b00000000000000000000000000010011 0
#480
0,
#490
b00000000000000000000000001001100 #
b00000000000000000000000000001111 $
b00000000000000000000000000001011 &
b00000000000000000000000000001100 '
b00000000000000000000000000001110 )
b00000000000000000000000000001011 *
b00000000000000000000000001010000 +
1,
b00000000000000000000000000010100 0
#500
0,
#510
b00000000000000000000000001010000 #
b00000000000000000000000000001100 $
b00000000000000000000000000001100 &
b00000000000000000000000000001101 '
b00000000000000000000000000001011 )
b00000000000000000000000000001110 *
b00000000000000000000000001010100 +
1,
b00000000000000000000000000010101 0
#520
0,
#530
b00000000000000000000000001010100 #
b00000000000000000000000000001101 $
b00000000000000000000000000001111 &
b00000000000000000000000000010000 '
b00000000000000000000000000001100 )
b00000000000000000000000000001011 *
b00000000000000000000000001011000 +
1,
b00000000000000000000000000010110 0
#540
0,
#550
b00000000000000000000000001011000 #
b00000000000000000000000000010000 $
b00000000000000000000000000001100 &
b00000000000000000000000000001101 '
b00000000000000000000000000001111 )
b00000000000000000000000000001100 *
b00000000000000000000000001011100 +
1,
b00000000000000000000000000010111 0
#560
0,
#570
b00000000000000000000000001011100 #
b00000000000000000000000000001101 $
b00000000000000000000000000001101 &
b00000000000000000000000000001110 '
b00000000000000000000000000001100 )
b00000000000000000000000000001111 *
b00000000000000000000000001100000 +
1,
b00000000000000000000000000011000 0
#580
0,
#590
b00000000000000000000000001100000 #
b00000000000000000000000000001110 $
b00000000000000000000000000010000 &
b00000000000000000000000000010001 '
b00000000000000000000000000001101 )
b00000000000000000000000000001100 *
b00000000000000000000000001100100 +
1,
b00000000000000000000000000011001 0
#600
0,
#610
b00000000000000000000000001100100 #
b00000000000000000000000000010001 $
b00000000000000000000000000001101 &
b00000000000000000000000000001110 '
b00000000000000000000000000010000 )
b00000000000000000000000000001101 *
b00000000000000000000000001101000 +
1,
b00000000000000000000000000011010 0
#620
0,
#630
b00000000000000000000000001101000 #
b00000000000000000000000000001110 $
b00000000000000000000000000001110 &
b00000000000000000000000000001111 '
b00000000000000000000000000001101 )
b00000000000000000000000000010000 *
b00000000000000000000000001101100 +
1,
b00000000000000000000000000011011 0
#640
0,
#650
b00000000000000000000000001101100 #
b00000000000000000000000000001111 $
b00000000000000000000000000010001 &
b00000000000000000000000000010010 '
b00000000000000000000000000001110 )
b00000000000000000000000000001101 *
b00000000000000000000000001110000 +
1,
b00000000000000000000000000011100 0
#660
0,
#670
b00000000000000000000000001110000 #
b00000000000000000000000000010010 $
b00000000000000000000000000001110 &
b00000000000000000000000000001111 '
b00000000000000000000000000010001 )
b00000000000000000000000000001110 *
b00000000000000000000000001110100 +
1,
b00000000000000000000000000011101 0
#680
0,
#690
b00000000000000000000000001110100 #
b00000000000000000000000000001111 $
b00000000000000000000000000001111 &
b00000000000000000000000000010000 '
b00000000000000000000000000001110 )
b00000000000000000000000000010001 *
b00000000000000000000000001111000 +
1,
b00000000000000000000000000011110 0
#700
0,
#710
b00000000000000000000000001111000 #
b00000000000000000000000000010000 $
b00000000000000000000000000010010 &
b00000000000000000000000000010011 '
b00000000000000000000000000001111 )
b00000000000000000000000000001110 *
b00000000000000000000000001111100 +
1,
b00000000000000000000000000011111 0
#720
0,
#730
b00000000000000000000000001111100 #
b00000000000000000000000000010011 $
b00000000000000000000000000001111 &
b00000000000000000000000000010000 '
b00000000000000000000000000010010 )
b00000000000000000000000000001111 *
b00000000000000000000000010000000 +
1,
b00000000000000000000000000100000 0
#740
0,
#750
b00000000000000000000000010000000 #
b00000000000000000000000000010000 $
b00000000000000000000000000010000 &
b00000000000000000000000000010001 '
b00000000000000000000000000001111 )
b00000000000000000000000000010010 *
b00000000000000000000000010000100 +
1,
b00000000000000000000000000100001 0
#760
0,
#770
b00000000000000000000000010000100 #
b00000000000000000000000000010001 $
b00000000000000000000000000010011 &
b00000000000000000000000000010100 '
b00000000000000000000000000010000 )
b00000000000000000000000000001111 *
b00000000000000000000000010001000 +
1,
b00000000000000000000000000100010 0
#780
0,
#790
b00000000000000000000000010001000 #
b00000000000000000000000000010100 $
b00000000000000000000000000010000 &
b00000000000000000000000000010001 '
b00000000000000000000000000010011 )
b00000000000000000000000000010000 *
b00000000000000000000000010001100 +
1,
b00000000000000000000000000100011 0
#800
0,
#810
b00000000000000000000000010001100 #
b00000000000000000000000000010001 $
b00000000000000000000000000010001 &
b00000000000000000000000000010010 '
b00000000000000000000000000010000 )
b00000000000000000000000000010011 *
b00000000000000000000000010010000 +
1,
b00000000000000000000000000100100 0
#820
0,
#830
b00000000000000000000000010010000 #
b00000000000000000000000000010010 $
b00000000000000000000000000010100 &
b00000000000000000000000000010101 '
b00000000000000000000000000010001 )
b00000000000000000000000000010000 *
b00000000000000000000000010010100 +
1,
b00000000000000000000000000100101 0
#840
0,
#850
b00000000000000000000000010010100 #
b00000000000000000000000000010101 $
b00000000000000000000000000010001 &
b00000000000000000000000000010010 '
b00000000000000000000000000010100 )
b00000000000000000000000000010001 *
b00000000000000000000000010011000 +
1,
b00000000000000000000000000100110 0
#860
0,
#870
b00000000000000000000000010011000 #
b00000000000000000000000000010010 $
b00000000000000000000000000010010 &
b00000000000000000000000000010011 '
b00000000000000000000000000010001 )
b00000000000000000000000000010100 *
b00000000000000000000000010011100 +
1,
b00000000000000000000000000100111 0
#880
0,
#890
b00000000000000000000000010011100 #
b00000000000000000000000000010011 $
b00000000000000000000000000010101 &
b00000000000000000000000000010110 '
b00000000000000000000000000010010 )
b00000000000000000000000000010001 *
b00000000000000000000000010100000 +
1,
b00000000000000000000000000101000 0
#900
0,
#910
b00000000000000000000000010100000 #
b00000000000000000000000000010110 $
b00000000000000000000000000010010 &
b00000000000000000000000000010011 '
b00000000000000000000000000010101 )
b00000000000000000000000000010010 *
b00000000000000000000000010100100 +
1,
b00000000000000000000000000101001 0
#920
0,
#930
b00000000000000000000000010100100 #
b00000000000000000000000000010011 $
b00000000000000000000000000010011 &
b00000000000000000000000000010100 '
b00000000000000000000000000010010 )
b00000000000000000000000000010101 *
b00000000000000000000000010101000 +
1,
b00000000000000000000000000101010 0
#940
0,
#950
b00000000000000000000000010101000 #
b00000000000000000000000000010100 $
b00000000000000000000000000010110 &
b00000000000000000000000000010111 '
b00000000000000000000000000010011 )
b00000000000000000000000000010010 *
b00000000000000000000000010101100 +
1,
b00000000000000000000000000101011 0
#960
0,
#970
b00000000000000000000000010101100 #
b00000000000000000000000000010111 $
b00000000000000000000000000010011 &
b00000000000000000000000000010100 '
b00000000000000000000000000010110 )
b00000000000000000000000000010011 *
b00000000000000000000000010110000 +
1,
b00000000000000000000000000101100 0
#980
0,
#990
b00000000000000000000000010110000 #
b00000000000000000000000000010100 $
b00000000000000000000000000010100 &
b00000000000000000000000000010101 '
b00000000000000000000000000010011 )
b00000000000000000000000000010110 *
b00000000000000000000000010110100 +
1,
b00000000000000000000000000101101 0
#1000
0,
#1010
b00000000000000000000000010110100 #
b00000000000000000000000000010101 $
b00000000000000000000000000010111 &
b00000000000000000000000000011000 '
b00000000000000000000000000010100 )
b00000000000000000000000000010011 *
b00000000000000000000000010111000 +
1,
b00000000000000000000000000101110 0
#1020
0,
#1030
b00000000000000000000000010111000 #
b00000000000000000000000000011000 $
b00000000000000000000000000010100 &
b00000000000000000000000000010101 '
b00000000000000000000000000010111 )
b00000000000000000000000000010100 *
b00000000000000000000000010111100 +
1,
b00000000000000000000000000101111 0
#1040
0,
#1050
b00000000000000000000000010111100 #
b00000000000000000000000000010101 $
b00000000000000000000000000010101 &
b00000000000000000000000000010110 '
b00000000000000000000000000010100 )
b00000000000000000000000000010111 *
b00000000000000000000000011000000 +
1,
b00000000000000000000000000110000 0
#1060
0,
#1070
b00000000000000000000000011000000 #
b00000000000000000000000000010110 $
b00000000000000000000000000011000 &
b00000000000000000000000000011001 '
b00000000000000000000000000010101 )
b00000000000000000000000000010100 *
b00000000000000000000000011000100 +
1,
b00000000000000000000000000110001 0
#1080
0,
#1090
b00000000000000000000000011000100 #
b00000000000000000000000000011001 $
b00000000000000000000000000010101 &
b00000000000000000000000000010110 '
b00000000000000000000000000011000 )
b00000000000000000000000000010101 *
b00000000000000000000000011001000 +
1,
b00000000000000000000000000110010 0
#1100
0,
#1110
b00000000000000000000000011001000 #
b00000000000000000000000000010110 $
b00000000000000000000000000010110 &
b00000000000000000000000000010111 '
b00000000000000000000000000010101 )
b00000000000000000000000000011000 *
b00000000000000000000000011001100 +
1,
b00000000000000000000000000110011 0
#1120
0,
#1130
b00000000000000000000000011001100 #
b00000000000000000000000000010111 $
b00000000000000000000000000011001 &
b00000000000000000000000000011010 '
b00000000000000000000000000010110 )
b00000000000000000000000000010101 *
b00000000000000000000000011010000 +
1,
b00000000000000000000000000110100 0
#1140
0,
#1150
b00000000000000000000000011010000 #
b00000000000000000000000000011010 $
b00000000000000000000000000010110 &
b00000000000000000000000000010111 '
b00000000000000000000000000011001 )
b00000000000000000000000000010110 *
b00000000000000000000000011010100 +
1,
b00000000000000000000000000110101 0
#1160
0,
#1170
b00000000000000000000000011010100 #
b00000000000000000000000000010111 $
b00000000000000000000000000010111 &
b00000000000000000000000000011000 '
b00000000000000000000000000010110 )
b00000000000000000000000000011001 *
b00000000000000000000000011011000 +
1,
b00000000000000000000000000110110 0
#1180
0,
#1190
b00000000000000000000000011011000 #
b00000000000000000000000000011000 $
b00000000000000000000000000011010 &
b00000000000000000000000000011011 '
b00000000000000000000000000010111 )
b00000000000000000000000000010110 *
b00000000000000000000000011011100 +
1,
b00000000000000000000000000110111 0
#1200
0,
#1210
b00000000000000000000000011011100 #
b00000000000000000000000000011011 $
b00000000000000000000000000010111 &
b00000000000000000000000000011000 '
b00000000000000000000000000011010 )
b00000000000000000000000000010111 *
b00000000000000000000000011100000 +
1,
b00000000000000000000000000111000 0
#1220
0,
#1230
b00000000000000000000000011100000 #
b00000000000000000000000000011000 $
b00000000000000000000000000011000 &
b00000000000000000000000000011001 '
b00000000000000000000000000010111 )
b00000000000000000000000000011010 *
b00000000000000000000000011100100 +
1,
b00000000000000000000000000111001 0
#1240
0,
#1250
b00000000000000000000000011100100 #
b00000000000000000000000000011001 $
b00000000000000000000000000011011 &
b00000000000000000000000000011100 '
b00000000000000000000000000011000 )
b00000000000000000000000000010111 *
b00000000000000000000000011101000 +
1,
b00000000000000000000000000111010 0
#1260
0,
#1270
b00000000000000000000000011101000 #
b00000000000000000000000000011100 $
b00000000000000000000000000011000 &
b00000000000000000000000000011001 '
b00000000000000000000000000011011 )
b00000000000000000000000000011000 *
b00000000000000000000000011101100 +
1,
b00000000000000000000000000111011 0
#1280
0,
#1290
b00000000000000000000000011101100 #
b00000000000000000000000000011001 $
b00000000000000000000000000011001 &
b00000000000000000000000000011010 '
b00000000000000000000000000011000 )
b00000000000000000000000000011011 *
b00000000000000000000000011110000 +
1,
b00000000000000000000000000111100 0
#1300
0,
#1310
b00000000000000000000000011110000 #
b00000000000000000000000000011010 $
b00000000000000000000000000011100 &
b00000000000000000000000000011101 '
b00000000000000000000000000011001 )
b00000000000000000000000000011000 *
b00000000000000000000000011110100 +
1,
b00000000000000000000000000111101 0
#1320
0,
#1330
b00000000000000000000000011110100 #
b00000000000000000000000000011101 $
b00000000000000000000000000011001 &
b00000000000000000000000000011010 '
b00000000000000000000000000011100 )
b00000000000000000000000000011001 *
b00000000000000000000000011111000 +
1,
b00000000000000000000000000111110 0
#1340
0,
#1350
b00000000000000000000000011111000 #
b00000000000000000000000000011010 $
b00000000000000000000000000011010 &
b00000000000000000000000000011011 '
b00000000000000000000000000011001 )
b00000000000000000000000000011100 *
b00000000000000000000000011111100 +
1,
b00000000000000000000000000111111 0
#1360
0,
#1370
b00000000000000000000000011111100 #
b00000000000000000000000000011011 $
b00000000000000000000000000011101 &
b00000000000000000000000000011110 '
b00000000000000000000000000011010 )
b00000000000000000000000000011001 *
b00000000000000000000000100000000 +
1,
b00000000000000000000000001000000 0
#1380
0,
#1390
b00000000000000000000000100000000 #
b00000000000000000000000000011110 $
b00000000000000000000000000011010 &
b00000000000000000000000000011011 '
b00000000000000000000000000011101 )
b00000000000000000000000000011010 *
b00000000000000000000000100000100 +
1,
b00000000000000000000000001000001 0
#1400
0,
#1410
b00000000000000000000000100000100 #
b00000000000000000000000000011011 $
b00000000000000000000000000011011 &
b00000000000000000000000000011100 '
b00000000000000000000000000011010 )
b00000000000000000000000000011101 *
b00000000000000000000000100001000 +
1,
b00000000000000000000000001000010 0
#1420
0,
#1430
b00000000000000000000000100001000 #
b00000000000000000000000000011100 $
b00000000000000000000000000011110 &
b00000000000000000000000000011111 '
b00000000000000000000000000011011 )
b00000000000000000000000000011010 *
b00000000000000000000000100001100 +
1,
b00000000000000000000000001000011 0
#1440
0,
#1450
b00000000000000000000000100001100 #
b00000000000000000000000000011111 $
b00000000000000000000000000011011 &
b00000000000000000000000000011100 '
b00000000000000000000000000011110 )
b00000000000000000000000000011011 *
b00000000000000000000000100010000 +
1,
b00000000000000000000000001000100 0
#1460
0,
#1470
b00000000000000000000000100010000 #
b00000000000000000000000000011100 $
b00000000000000000000000000011100 &
b00000000000000000000000000011101 '
b00000000000000000000000000011011 )
b00000000000000000000000000011110 *
b00000000000000000000000100010100 +
1,
b00000000000000000000000001000101 0
#1480
0,
#1490
b00000000000000000000000100010100 #
b00000000000000000000000000011101 $
b00000000000000000000000000011111 &
b00000000000000000000000000100000 '
b00000000000000000000000000011100 )
b00000000000000000000000000011011 *
b00000000000000000000000100011000 +
1,
b00000000000000000000000001000110 0
#1500
0,
#1510
b00000000000000000000000100011000 #
b00000000000000000000000000100000 $
b00000000000000000000000000011100 &
b00000000000000000000000000011101 '
b00000000000000000000000000011111 )
b00000000000000000000000000011100 *
b00000000000000000000000100011100 +
1,
b00000000000000000000000001000111 0
#1520
0,
#1530
b00000000000000000000000100011100 #
b00000000000000000000000000011101 $
b00000000000000000000000000011101 &
b00000000000000000000000000011110 '
b00000000000000000000000000011100 )
b00000000000000000000000000011111 *
b00000000000000000000000100100000 +
1,
b00000000000000000000000001001000 0
#1540
0,
#1550
b00000000000000000000000100100000 #
b00000000000000000000000000011110 $
b00000000000000000000000000100000 &
b00000000000000000000000000100001 '
b00000000000000000000000000011101 )
b00000000000000000000000000011100 *
b00000000000000000000000100100100 +
1,
b00000000000000000000000001001001 0
#1560
0,
#1570
b00000000000000000000000100100100 #
b00000000000000000000000000100001 $
b00000000000000000000000000011101 &
b00000000000000000000000000011110 '
b00000000000000000000000000100000 )
b00000000000000000000000000011101 *
b00000000000000000000000100101000 +
1,
b00000000000000000000000001001010 0
#1580
0,
#1590
b00000000000000000000000100101000 #
b00000000000000000000000000011110 $
b00000000000000000000000000011110 &
b00000000000000000000000000011111 '
b00000000000000000000000000011101 )
b00000000000000000000000000100000 *
b00000000000000000000000100101100 +
1,
b00000000000000000000000001001011 0
#1600
0,
#1610
b00000000000000000000000100101100 #
b00000000000000000000000000011111 $
b00000000000000000000000000100001 &
b00000000000000000000000000100010 '
b00000000000000000000000000011110 )
b00000000000000000000000000011101 *
b00000000000000000000000100110000 +
1,
b00000000000000000000000001001100 0
#1620
0,
#1630
b00000000000000000000000100110000 #
b00000000000000000000000000100010 $
b00000000000000000000000000011110 &
b00000000000000000000000000011111 '
b00000000000000000000000000100001 )
b00000000000000000000000000011110 *
b00000000000000000000000100110100 +
1,
b00000000000000000000000001001101 0
#1640
0,
#1650
b00000000000000000000000100110100 #
b00000000000000000000000000011111 $
b00000000000000000000000000011111 &
b00000000000000000000000000100000 '
b00000000000000000000000000011110 )
b00000000000000000000000000100001 *
b00000000000000000000000100111000 +
1,
b00000000000000000000000001001110 0
#1660
0,
#1670
b00000000000000000000000100111000 #
b00000000000000000000000000100000 $
b00000000000000000000000000100010 &
b00000000000000000000000000100011 '
b00000000000000000000000000011111 )
b00000000000000000000000000011110 *
b00000000000000000000000100111100 +
1,
b00000000000000000000000001001111 0
#1680
0,
#1690
b00000000000000000000000100111100 #
b00000000000000000000000000100011 $
b00000000000000000000000000011111 &
b00000000000000000000000000100000 '
b00000000000000000000000000100010 )
b00000000000000000000000000011111 *
b00000000000000000000000101000000 +
1,
b00000000000000000000000001010000 0
#1700
0,
#1710
b00000000000000000000000101000000 #
b00000000000000000000000000100000 $
b00000000000000000000000000100000 &
b00000000000000000000000000100001 '
b00000000000000000000000000011111 )
b00000000000000000000000000100010 *
b00000000000000000000000101000100 +
1,
b00000000000000000000000001010001 0
#1720
0,
#1730
b00000000000000000000000101000100 #
b00000000000000000000000000100001 $
b00000000000000000000000000100011 &
b00000000000000000000000000100100 '
b00000000000000000000000000100000 )
b00000000000000000000000000011111 *
b00000000000000000000000101001000 +
1,
b00000000000000000000000001010010 0
#1740
0,
#1750
b00000000000000000000000101001000 #
b00000000000000000000000000100100 $
b00000000000000000000000000100000 &
b00000000000000000000000000100001 '
b00000000000000000000000000100011 )
b00000000000000000000000000100000 *
b00000000000000000000000101001100 +
1,
b00000000000000000000000001010011 0
#1760
0,
#1770
b00000000000000000000000101001100 #
b00000000000000000000000000100001 $
b00000000000000000000000000100001 &
b00000000000000000000000000100010 '
b00000000000000000000000000100000 )
b00000000000000000000000000100011 *
b00000000000000000000000101010000 +
1,
b00000000000000000000000001010100 0
#1780
0,
#1790
b00000000000000000000000101010000 #
b00000000000000000000000000100010 $
b00000000000000000000000000100100 &
b00000000000000000000000000100101 '
b00000000000000000000000000100001 )
b00000000000000000000000000100000 *
b00000000000000000000000101010100 +
1,
b00000000000000000000000001010101 0
#1800
0,
#1810
b00000000000000000000000101010100 #
b00000000000000000000000000100101 $
b00000000000000000000000000100001 &
b00000000000000000000000000100010 '
b00000000000000000000000000100100 )
b00000000000000000000000000100001 *
b00000000000000000000000101011000 +
1,
b00000000000000000000000001010110 0
#1820
0,
#1830
b00000000000000000000000101011000 #
b00000000000000000000000000100010 $
b00000000000000000000000000100010 &
b00000000000000000000000000100011 '
b00000000000000000000000000100001 )
b00000000000000000000000000100100 *
b00000000000000000000000101011100 +
1,
b00000000000000000000000001010111 0
#1840
0,
#1850
b00000000000000000000000101011100 #
b00000000000000000000000000100011 $
b00000000000000000000000000100101 &
b00000000000000000000000000100110 '
b00000000000000000000000000100010 )
b00000000000000000000000000100001 *
b00000000000000000000000101100000 +
1,
b00000000000000000000000001011000 0
#1860
0,
#1870
b00000000000000000000000101100000 #
b00000000000000000000000000100110 $
b00000000000000000000000000100010 &
b00000000000000000000000000100011 '
b00000000000000000000000000100101 )
b00000000000000000000000000100010 *
b00000000000000000000000101100100 +
1,
b00000000000000000000000001011001 0
#1880
0,
#1890
b00000000000000000000000101100100 #
b00000000000000000000000000100011 $
b00000000000000000000000000100011 &
b00000000000000000000000000100100 '
b00000000000000000000000000100010 )
b00000000000000000000000000100101 *
b00000000000000000000000101101000 +
1,
b00000000000000000000000001011010 0
#1900
0,
#1910
b00000000000000000000000101101000 #
b00000000000000000000000000100100 $
b00000000000000000000000000100110 &
b00000000000000000000000000100111 '
b00000000000000000000000000100011 )
b00000000000000000000000000100010 *
b00000000000000000000000101101100 +
1,
b00000000000000000000000001011011 0
#1920
0,
#1930
b00000000000000000000000101101100 #
b00000000000000000000000000100111 $
b00000000000000000000000000100011 &
b00000000000000000000000000100100 '
b00000000000000000000000000100110 )
b00000000000000000000000000100011 *
b00000000000000000000000101110000 +
1,
b00000000000000000000000001011100 0
#1940
0,
#1950
b00000000000000000000000101110000 #
b00000000000000000000000000100100 $
b00000000000000000000000000100100 &
b00000000000000000000000000100101 '
b00000000000000000000000000100011 )
b00000000000000000000000000100110 *
b00000000000000000000000101110100 +
1,
b00000000000000000000000001011101 0
#1960
0,
#1970
b00000000000000000000000101110100 #
b00000000000000000000000000100101 $
b00000000000000000000000000100111 &
b00000000000000000000000000101000 '
b00000000000000000000000000100100 )
b00000000000000000000000000100011 *
b00000000000000000000000101111000 +
1,
b00000000000000000000000001011110 0
#1980
0,
#1990
b00000000000000000000000101111000 #
b00000000000000000000000000101000 $
b00000000000000000000000000100100 &
b00000000000000000000000000100101 '
b00000000000000000000000000100111 )
b00000000000000000000000000100100 *
b00000000000000000000000101111100 +
1,
b00000000000000000000000001011111 0
#2000
0,
#2010
b00000000000000000000000101111100 #
b00000000000000000000000000100101 $
b00000000000000000000000000100101 &
b00000000000000000000000000100110 '
b00000000000000000000000000100100 )
b00000000000000000000000000100111 *
b00000000000000000000000110000000 +
1,
b00000000000000000000000001100000 0
#2020
0,
#2030
b00000000000000000000000110000000 #
b00000000000000000000000000100110 $
b00000000000000000000000000101000 &
b00000000000000000000000000101001 '
b00000000000000000000000000100101 )
b00000000000000000000000000100100 *
b00000000000000000000000110000100 +
1,
b00000000000000000000000001100001 0
#2040
0,
#2050
b00000000000000000000000110000100 #
b00000000000000000000000000101001 $
b00000000000000000000000000100101 &
b00000000000000000000000000100110 '
b00000000000000000000000000101000 )
b00000000000000000000000000100101 *
b00000000000000000000000110001000 +
1,
b00000000000000000000000001100010 0
#2060
0,
#2070
b00000000000000000000000110001000 #
b00000000000000000000000000100110 $
b00000000000000000000000000100110 &
b00000000000000000000000000100111 '
b00000000000000000000000000100101 )
b00000000000000000000000000101000 *
b00000000000000000000000110001100 +
1,
b00000000000000000000000001100011 0
#2080
0,
